ERO Field Offices as Informal Detention Sites
…
ero_detloc_map |>
  mutate(matched = !is.na(detloc)) |>
  count(matched)

# A tibble: 2 × 2
  matched     n
  <lgl>   <int>
1 FALSE       2
2 TRUE       23

ero_detloc_map |>
  select(office_name, detloc, ddp_name)

# A tibble: 25 × 3
   office_name            detloc  ddp_name             
   <chr>                  <chr>   <chr>                
 1 Atlanta Field Office   ATLHOLD Atlanta Dist. Hold Rm
 2 Baltimore Field Office BALHOLD Baltimore Hold Room  
 3 Boston Field Office    BOSHOLD Boston Hold Room     
 4 Buffalo Field Office   BUFHOLD Buffalo Hold Room    
 5 Chicago Field Office   CHIHOLD Chicago Hold Room    
 6 Dallas Field Office    DALHOLD Dallas F.o. Hold     
 7 Denver Field Office    DENHOLD Denver Hold Room     
 8 Detroit Field Office   DETHOLD Detroit Hold Room    
 9 El Paso Field Office   <NA>    <NA>                 
10 Harlingen Field Office HLGHOLD Harlingen Hold Room  
# ℹ 15 more rows
…
ero_canonical |>
  select(canonical_id, canonical_name, city, state, detloc)

# A tibble: 25 × 5
   canonical_id canonical_name         city       state detloc 
          <int> <chr>                  <chr>      <chr> <chr>  
 1         2001 Atlanta Field Office   Atlanta    GA    ATLHOLD
 2         2002 Baltimore Field Office Baltimore  MD    BALHOLD
 3         2003 Boston Field Office    Burlington MA    BOSHOLD
 4         2004 Buffalo Field Office   Buffalo    NY    BUFHOLD
 5         2005 Chicago Field Office   Chicago    IL    CHIHOLD
 6         2006 Dallas Field Office    Dallas     TX    DALHOLD
 7         2007 Denver Field Office    Centennial CO    DENHOLD
 8         2008 Detroit Field Office   Detroit    MI    DETHOLD
 9         2009 El Paso Field Office   El Paso    TX    <NA>   
10         2010 Harlingen Field Office Harlingen  TX    HLGHOLD
# ℹ 15 more rows
…
ero_wiki_df

# A tibble: 25 × 9
   facility_name_wiki    status location facility_type_wiki authority management
   <chr>                 <chr>  <chr>    <chr>              <chr>     <chr>     
 1 Atlanta Field Office  Active [[Atlan… ICE ERO Field Off… ERO       ICE       
 2 Baltimore Field Offi… Active [[Balti… ICE ERO Field Off… ERO       ICE       
 3 Boston Field Office   Active [[Burli… ICE ERO Field Off… ERO       ICE       
 4 Buffalo Field Office  Active [[Buffa… ICE ERO Field Off… ERO       ICE       
 5 Chicago Field Office  Active [[Chica… ICE ERO Field Off… ERO       ICE       
 6 Dallas Field Office   Active [[Dalla… ICE ERO Field Off… ERO       ICE       
 7 Denver Field Office   Active [[Cente… ICE ERO Field Off… ERO       ICE       
 8 Detroit Field Office  Active [[Detro… ICE ERO Field Off… ERO       ICE       
 9 El Paso Field Office  Active [[El Pa… ICE ERO Field Off… ERO       ICE       
10 Harlingen Field Offi… Active [[Harli… ICE ERO Field Off… ERO       ICE       
# ℹ 15 more rows
# ℹ 3 more variables: average_daily_population <chr>, minimum_capacity <chr>,
#   demographics <chr>
…
